Robinson-Cup,,,,,,,,,,,,,,,,,,,,,,,,
19.06.2022,,,,,,,,,,,,,,,,,,,,,,,,
Wien-Stadlau,,,,,,,,,,,,,,,,,,,,,,,,
Wertung über,Altersklasse,(Altersklasse|Alle),,,,,,,,,,,,,,,,,,,,,,
Bewerbe,1: Kleiner=Besser (sek); 0: Größer=Besser (meter),,,,,,,,,,,,,,,,,,,,,,,
km/h-Sprint,0,,,,,,,,,,,,,,,,,,,,,,,
Ring-Weitwurf,0,,,,,,,,,,,,,,,,,,,,,,,
Stiegenspringen beidbeinig,1,,,,,,,,,,,,,,,,,,,,,,,
Hürdenstaffel,1,,,,,,,,,,,,,,,,,,,,,,,
Sprungstaffel einbeinig,0,,,,,,,,,,,,,,,,,,,,,,,
Teams,Verein,Startnummer,Name,YOB,Name,YOB,Name,YOB,Name,YOB,Name,YOB,Altersklasse,Gesamtrang,Gesamtpunkte,Leistung1,Punkte1,Leistung...,Punkte...,,,,,
Die Blitzschnellen,ATSV Ternitz,16,Tamara Gürtler,2013,Timo Hochegger,2012,Sophia Dan,2012,Felix Melichar,2011,,,,,,88.42,,52.58,,27.58,,42.93,,29.19
Stadlauer Wölfe,ATSV OMV Auersthal,17,David Stöckle,2011,Mia Grethe,2011,Fabian Baudis,2011,Felix Kraus,2011,,,,,,93.65,,69.78,,32.53,,40.08,,26.60
Riverside Rats,ULC Riverside Mödling,11,Niklas Harlander,2011,Luisa Fischer,2011,Chiara Peinkopf,2011,Victoria Dobernig,2011,,,,,,95.21,,67.99,,23.12,,36.64,,30.83
HSV1,HSV Bruck Kaisersteinbruch,10,Milena Wiesinger,2012,Joleen Wiesinger,2014,Pit Lunzer,2011,Mikko Pieloth,2011,Jonathan Windholz,2013,,,,81.42,,68.7,,30.34,,41.37,,26.10
SVS1,SVS-Leichtathletik,4,Paulina Sommer,2011,Lukas Atzberger,2011,Alexander Ritsch,2011,Jonathan Kluger,2012,,,,,,87.31,,54.46,,28.47,,39.31,,27.15
SVS2,SVS-Leichtathletik,5,Tristan Noah Thiel,2011,Paul Lafer,2011,Matteo Schrödl,2011,Elly Förster,2012,,,,,,91.20,,71.89,,26.20,,40.86,,31.00
SVS3,SVS-Leichtathletik,6,Jakob Politzer,2012,Emil Bos,2012,Ylvie Volek,2012,Marlon Markovits,2012,,,,,,91.68,,63.72,,28.20,,38.21,,30.80
Stadlauer Pinguine,ATSV OMV Auersthal,18,Nelli Triessnig,2013,Elena Stein,2011,Philipp Hornasek,2012,Niklas Hornasek,2013,,,,,,86.25,,54.93,,27.14,,44.71,,28.05
Stadlauer Kängurus,ATSV OMV Auersthal,19,Noah Kacirek,2012,Josefine Christoffers,2012,David Ochs,2013,Emmie Hermann,2013,,,,,,86.81,,52.76,,25.24,,40.29,,25.35
VS Attemsgasse Kids,ATSV OMV Auersthal,20,Antonia Bagaliyska,2011,Laura Urbscheit-Pfeiffer,2013,Sophie Kreitner,2012,Johanna Werner,2013,,,,,,87.11,,35.64,,33.20,,39.85,,29.3
Riverside Hamsters,ULC Riverside Mödling,12,Julian Schmidt,2012,Marlene Dworak,2012,Paul Daublebsky,2013,Simon Hammer,2012,,,,,,88.24,,56.55,,25.48,,40.96,,28.25
SVS4,SVS-Leichtathletik,8,Jakob Unger,2012,Elias Unger,2012,Felix Nagl,2012,Ryan Dobler,2013,,,,,,87.23,,52.91,,33.19,,40.47,,27.7
SVS5,SVS-Leichtathletik,9,Alina Puh,2013,Dilara Tulumovic,2013,Milos Stojkov,2013,,,,,,,,79.63,,42.71,,41.48,,46.53,,22.95
ULC Weinland 1,ULC Weinland,2,Lukas Bahr,2013,Benjamin Schmid,2013,Regina Hrabal,2011,Melissa Titz,2013,,,,,,86.37,,47.33,,32.10,,41.73,,24.15
ULC Weinland 2,ULC Weinland,3,Paul Viollak,2012,Emma Pieler,2012,Louis Smetana,2014,,,,,,,,89.02,,44.2,,28.38,,43.28,,27.33
Die Rennschnecken,ULC Klosterneuburg,1,Elisa Brunnbauer,2014,Annika Hammerer,2013,Daniel Schernthaner,2013,Florian Dickinger,2013,,,,,,88.69,,60.80,,25.59,,40.53,,28.7
Riverside Mice,ULC Riverside Mödling,13,Katharina Stelzl,2013,Marit Hammer,2015,Benjamin Nussbaumer,2013,Samuel Kassl,2013,,,,,,86.97,,47.51,,29.11,,41.10,,26.10
SVS6,SVS-Leichtathletik,7,Sascha Ritsch,2014,Samia Tulumovic,2014,Christoph Cibena,2014,Ema Tulumovic,2015,,,,,,67.42,,41.0,,50.30,,45.35,,20.2
Die MückTexls,ATSV OMV Auersthal,15,Johanna Texl,2014,Pauline Texl,2012,Jonas Mück,2013,Elion Mück,2015,Mia Joldzic,2014,,,,81.24,,47.42,,28.20,,45.08,,23.35
Stadlauer Frösche,ATSV OMV Auersthal,21,Fridolin Giglinger,2013,Charlotte Mannsberger,2013,Nina Flechl,2013,Ian Beck,2015,,,,,,87.22,,46.47,,27.48,,41.92,,27.05
Stadlauer Löwen,ATSV OMV Auersthal,14,Ariana Stöckle,2013,Nino Redl,2013,Laura Jelinek,2014,Mariella Stein,2014,Luna Pfingstner,2015,,,,86.87,,48.41,,21.18,,45.03,,24.40