Robinson-Cup,,,,,,,,,,,,,,,,,,,,,,,,
02.09.2018,,,,,,,,,,,,,,,,,,,,,,,,
Wien-Stadlau,,,,,,,,,,,,,,,,,,,,,,,,
Wertung über,Altersklasse,(Altersklasse|Alle),,,,,,,,,,,,,,,,,,,,,,
Bewerbe,1: Kleiner=Besser (sek); 0: Größer=Besser (meter),,,,,,,,,,,,,,,,,,,,,,,
Sprint,1,,,,,,,,,,,,,,,,,,,,,,,
Vortex-Weitwurf,0,,,,,,,,,,,,,,,,,,,,,,,
Biathlon-Staffel,1,,,,,,,,,,,,,,,,,,,,,,,
1kg Medizinballstoß,0,,,,,,,,,,,,,,,,,,,,,,,
Beidbeiniger 3er-Hopp,0,,,,,,,,,,,,,,,,,,,,,,,
Teams,Verein,Startnummer,Name,YOB,Name,YOB,Name,YOB,Name,YOB,Name,YOB,Altersklasse,Gesamtrang,Gesamtpunkte,Leistung1,Punkte1,Leistung...,Punkte...,,,,,
Die Purgstall Flitzers,UVB Purgstall,2,Olivia Perera,2010,Laurent Wurzer,2010,Gabriel Egger,2011,Alex Brenneis,2009,,,,,,32.7,,14.53,,01:58.67,,37.6,,19.9
Young Sprinters,ATSV OMV Auersthal,,Marlen Lexa,2009,Niclas Bayer,2010,Emmanuel Egolum,2010,Benjamin Freiberg,2009,,,,,,32.2,,13.6,,,,32.3,,17.4
Die drei Musketiere,ATSV OMV Auersthal,1,Hanna Kastner,2010,Raphael Ralbovsky,2011,Max Mikolajczyk,2011,,,,,,,,34.4,,19.85,,02:35.56,,35.5,,18.1